Index,ID,Name,Age,Photo,Nationality,Flag,Overall,Potential,Club,Club Logo,Value,Wage,Special,Preferred Foot,International Reputation,Weak Foot,Skill Moves,Work Rate,Body Type,Real Face,Position,Jersey Number,Joined,Loaned From,Contract Valid Until,Height,Weight,LS,ST,RS,LW,LF,CF,RF,RW,LAM,CAM,RAM,LM,LCM,CM,RCM,RM,LWB,LDM,CDM,RDM,RWB,LB,LCB,CB,RCB,RB,Crossing,Finishing,HeadingAccuracy,ShortPassing,Volleys,Dribbling,Curve,FKAccuracy,LongPassing,BallControl,Acceleration,SprintSpeed,Agility,Reactions,Balance,ShotPower,Jumping,Stamina,Strength,LongShots,Aggression,Interceptions,Positioning,Vision,Penalties,Composure,Marking,StandingTackle,SlidingTackle,GKDiving,GKHandling,GKKicking,GKPositioning,GKReflexes,Release Clause
0,158023,L. Messi,31,https://cdn.sofifa.org/players/4/19/158023.png,Argentina,https://cdn.sofifa.org/flags/52.png,94,94,FC Barcelona,https://cdn.sofifa.org/teams/2/light/241.png,€110.5M,€565K,2202,Left,5,4,4,Medium/ Medium,Messi,Yes,RF,10,"Jul 1, 2004",,2021,5'7,159lbs,88+2,88+2,88+2,92+2,93+2,93+2,93+2,92+2,93+2,93+2,93+2,91+2,84+2,84+2,84+2,91+2,64+2,61+2,61+2,61+2,64+2,59+2,47+2,47+2,47+2,59+2,84,95,70,90,86,97,93,94,87,96,91,86,91,95,95,85,68,72,59,94,48,22,94,94,75,96,33,28,26,6,11,15,14,8,€226.5M
1,20801,Cristiano Ronaldo,33,https://cdn.sofifa.org/players/4/19/20801.png,Portugal,https://cdn.sofifa.org/flags/38.png,94,94,Juventus,https://cdn.sofifa.org/teams/2/light/45.png,€77M,€405K,2228,Right,5,4,5,High/ Low,C. Ronaldo,Yes,ST,7,"Jul 10, 2018",,2022,6'2,183lbs,91+3,91+3,91+3,89+3,90+3,90+3,90+3,89+3,88+3,88+3,88+3,88+3,81+3,81+3,81+3,88+3,65+3,61+3,61+3,61+3,65+3,61+3,53+3,53+3,53+3,61+3,84,94,89,81,87,88,81,76,77,94,89,91,87,96,70,95,95,88,79,93,63,29,95,82,85,95,28,31,23,7,11,15,14,11,€127.1M
2,190871,Neymar Jr,26,https://cdn.sofifa.org/players/4/19/190871.png,Brazil,https://cdn.sofifa.org/flags/54.png,92,93,Paris Saint-Germain,https://cdn.sofifa.org/teams/2/light/73.png,€118.5M,€290K,2143,Right,5,5,5,High/ Medium,Neymar,Yes,LW,10,"Aug 3, 2017",,2022,5'9,150lbs,84+3,84+3,84+3,89+3,89+3,89+3,89+3,89+3,89+3,89+3,89+3,88+3,81+3,81+3,81+3,88+3,65+3,60+3,60+3,60+3,65+3,60+3,47+3,47+3,47+3,60+3,79,87,62,84,84,96,88,87,78,95,94,90,96,94,84,80,61,81,49,82,56,36,89,87,81,94,27,24,33,9,9,15,15,11,€228.1M
3,193080,De Gea,27,https://cdn.sofifa.org/players/4/19/193080.png,Spain,https://cdn.sofifa.org/flags/45.png,91,93,Manchester United,https://cdn.sofifa.org/teams/2/light/11.png,€72M,€260K,1471,Right,4,3,1,Medium/ Medium,Lean,Yes,GK,1,"Jul 1, 2011",,2020,6'4,168lbs,,,,,,,,,,,,,,,,,,,,,,,,,,,17,13,21,50,13,18,21,19,51,42,57,58,60,90,43,31,67,43,64,12,38,30,12,68,40,68,15,21,13,90,85,87,88,94,€138.6M
4,192985,K. De Bruyne,27,https://cdn.sofifa.org/players/4/19/192985.png,Belgium,https://cdn.sofifa.org/flags/7.png,91,92,Manchester City,https://cdn.sofifa.org/teams/2/light/10.png,€102M,€355K,2281,Right,4,5,4,High/ High,Normal,Yes,RCM,7,"Aug 30, 2015",,2023,5'11,154lbs,82+3,82+3,82+3,87+3,87+3,87+3,87+3,87+3,88+3,88+3,88+3,88+3,87+3,87+3,87+3,88+3,77+3,77+3,77+3,77+3,77+3,73+3,66+3,66+3,66+3,73+3,93,82,55,92,82,86,85,83,91,91,78,76,79,91,77,91,63,90,75,91,76,61,87,94,79,88,68,58,51,15,13,5,10,13,€196.4M
5,183277,E. Hazard,27,https://cdn.sofifa.org/players/4/19/183277.png,Belgium,https://cdn.sofifa.org/flags/7.png,91,91,Chelsea,https://cdn.sofifa.org/teams/2/light/5.png,€93M,€340K,2142,Right,4,4,4,High/ Medium,Normal,Yes,LF,10,"Jul 1, 2012",,2020,5'8,163lbs,83+3,83+3,83+3,89+3,88+3,88+3,88+3,89+3,89+3,89+3,89+3,89+3,82+3,82+3,82+3,89+3,66+3,63+3,63+3,63+3,66+3,60+3,49+3,49+3,49+3,60+3,81,84,61,89,80,95,83,79,83,94,94,88,95,90,94,82,56,83,66,80,54,41,87,89,86,91,34,27,22,11,12,6,8,8,€172.1M
